<?xml version="1.0" encoding="utf-8"?>
<!-- Generator: Adobe Illustrator 22.1.0, SVG Export Plug-In . SVG Version: 6.00 Build 0)  -->
<svg version="1.1" id="Слой_1" xmlns="http://www.w3.org/2000/svg" xmlns:xlink="http://www.w3.org/1999/xlink" x="0px" y="0px"
	 viewBox="0 0 100 100" style="enable-background:new 0 0 100 100;" xml:space="preserve">
<style type="text/css">
	.st0{fill:#F7921D;}
	.st1{fill:#FFFFFF;}
</style>
<path class="st0" d="M50,4.8L2.4,39.3l18.2,55.9h58.8l18.2-55.9L50,4.8z"/>
<g>
	<path class="st1" d="M35.2,30.3c3.1-1.1,6.5,1.5,6.4,4.7c0.2,3.3-3.4,5.9-6.4,4.8c-2.4-0.7-4-3.5-3.4-5.9
		C32.3,32.1,33.6,30.7,35.2,30.3z"/>
	<path class="st1" d="M61.9,30.3c2.5-0.9,5.5,0.7,6.3,3.3c0.9,2.5-0.7,5.5-3.3,6.3c-2.7,1-6-1.1-6.4-3.9
		C58.1,33.4,59.6,30.9,61.9,30.3z"/>
	<path class="st1" d="M48.5,33.6c3.1-1.1,6.5,1.5,6.4,4.7c0.1,3.1-3.2,5.8-6.2,4.9c-2.3-0.6-4-2.9-3.7-5.3
		C45.3,36,46.7,34.2,48.5,33.6z"/>
	<path class="st1" d="M26.8,45.6c0.2-2.4,2.4-4,4.8-3.9c0.9,1.8,1.9,3.6,2.8,5.4c0.5-0.7,0.9-1.4,1.4-2.1c-0.5-0.8-0.7-1.7-0.8-2.6
		c0.9-0.7,2.4-1,3.4-0.1c0.4,0.9-0.2,1.9-0.7,2.7c0.3,0.4,0.5,0.7,0.7,1.1c-0.7,1.5-0.8,3.1-0.8,4.8c0,2.9,0,5.9,0,8.8
		c0,2.6,1.9,4.9,4.2,5.9c0,2.6,0,5.2,0,7.8c0,1.6-1.2,3.2-2.9,3.3c-1.4,0.1-2.8,0.1-4.2,0c-1.7-0.1-2.9-1.7-2.9-3.3
		c0-4.5,0-8.9,0-13.4c-0.9,0-2,0-2.8-0.5c-1.5-0.7-2.2-2.5-2.1-4.1C26.8,52.1,26.6,48.9,26.8,45.6z"/>
	<path class="st1" d="M62,42c0.9-0.5,2.1-0.6,2.9,0.3c0.3,0.9-0.2,1.9-0.7,2.7c0.5,0.7,0.9,1.4,1.4,2.1c0.9-1.8,1.8-3.6,2.8-5.4
		c1.3,0,2.7,0.4,3.5,1.4c1.4,1.4,1.3,3.5,1.3,5.3c-0.1,2.8,0.1,5.6-0.1,8.4c-0.4,2.3-2.7,3.5-5,3.4c0,4.5,0,8.9,0,13.4
		c0,1.6-1.2,3.2-2.9,3.3c-1.4,0.1-2.8,0.1-4.2,0c-1.7-0.1-2.8-1.7-2.9-3.3c-0.1-2.6,0-5.2,0-7.8c2.3-1,4.1-3.3,4.2-5.9
		c0-3.4,0-6.7,0-10c0-1.2-0.3-2.4-0.8-3.5c0.2-0.3,0.6-0.8,0.7-1.1C62,44.1,61.2,42.9,62,42z"/>
	<path class="st1" d="M40.1,48.9c0.2-2.3,2.4-4,4.8-3.9c0.9,1.8,1.9,3.6,2.8,5.4c0.5-0.7,0.9-1.4,1.4-2.1c-0.5-0.8-1-1.8-0.6-2.7
		c0.7-0.7,2.3-0.7,3.1,0c0.4,0.9-0.2,2-0.7,2.7c0.5,0.7,0.9,1.4,1.4,2.1c0.9-1.8,1.9-3.5,2.8-5.4c1.3,0.1,2.7,0.3,3.5,1.4
		c1.4,1.4,1.3,3.5,1.3,5.3c-0.1,2.8,0.1,5.6-0.1,8.3c-0.3,2.3-2.7,3.6-5,3.4c0,4.5,0,8.9,0,13.4c0,1.6-1.2,3.2-2.9,3.3
		c-1.5,0-3.1,0.1-4.6,0c-1.7-0.3-2.6-2.1-2.5-3.6c0-4.3,0-8.6,0-12.9c-0.9,0-2,0-2.8-0.6c-1.5-0.7-2.2-2.5-2.1-4.1
		C40,55.5,40,52.1,40.1,48.9z"/>
</g>
</svg>
